<svg width="33" height="33" viewBox="0 0 33 33" fill="none" xmlns="http://www.w3.org/2000/svg">
<g id="chat-juice-box" clip-path="url(#clip0_28_403)">
<path id="Vector" d="M24.0075 14.0304H9.78235V29.6441" stroke="#A989F5" stroke-width="1.27982" stroke-linecap="round" stroke-linejoin="round"/>
<path id="Vector_2" d="M9.78235 31.4838H24.0075V16.0493" stroke="#A989F5" stroke-width="1.27982" stroke-linecap="round" stroke-linejoin="round"/>
<path id="Vector_3" d="M16.8938 27.3405L21.0916 24.2433C21.1481 24.2012 21.1899 24.1424 21.2111 24.0752C21.2324 24.008 21.232 23.9359 21.2099 23.869L19.767 19.3448C19.757 19.31 19.736 19.2795 19.7072 19.2577C19.6783 19.2359 19.6431 19.2241 19.607 19.2241C19.5708 19.2241 19.5356 19.2359 19.5068 19.2577C19.4779 19.2795 19.4569 19.31 19.447 19.3448L18.4871 22.3492H15.2876L14.3277 19.3416C14.3203 19.3047 14.3003 19.2714 14.2712 19.2475C14.242 19.2236 14.2055 19.2106 14.1678 19.2106C14.1301 19.2106 14.0935 19.2236 14.0644 19.2475C14.0352 19.2714 14.0152 19.3047 14.0078 19.3416L12.5744 23.869C12.55 23.936 12.5488 24.0092 12.5708 24.077C12.5928 24.1449 12.6369 24.2034 12.696 24.2433L16.8938 27.3405" stroke="#A989F5" stroke-width="1.27982" stroke-linecap="round" stroke-linejoin="round"/>
<path id="Vector_4" d="M26.2952 3.25752L19.0962 0.857866C18.8788 0.785172 18.6492 0.756066 18.4205 0.772215C18.1918 0.788363 17.9685 0.849449 17.7635 0.951976C17.5584 1.0545 17.3756 1.19646 17.2255 1.36972C17.0753 1.54298 16.9609 1.74415 16.8885 1.96171L15.3944 6.44106C15.2494 6.8798 15.2842 7.35809 15.4911 7.77124C15.6979 8.1844 16.0601 8.49877 16.4982 8.64554L18.9491 9.46143L19.6593 11.6179L21.2591 10.2261L23.71 11.042C24.1483 11.188 24.6266 11.1541 25.0399 10.9477C25.4532 10.7413 25.7677 10.3794 25.9144 9.94136L27.4054 5.462C27.4779 5.24438 27.5067 5.01458 27.4901 4.78581C27.4735 4.55703 27.4118 4.33379 27.3087 4.12893C27.2055 3.92406 27.0628 3.74161 26.8889 3.59207C26.715 3.44252 26.5132 3.32883 26.2952 3.25752V3.25752Z" stroke="#A989F5" stroke-width="1.27982" stroke-linecap="round" stroke-linejoin="round"/>
<path id="Vector_5" d="M24.5964 5.91637L18.9524 4.03824" stroke="#E3D6FF" stroke-width="1.27982" stroke-linecap="round" stroke-linejoin="round"/>
<path id="Vector_6" d="M20.9831 7.06017L18.249 6.14989" stroke="#E3D6FF" stroke-width="1.27982" stroke-linecap="round" stroke-linejoin="round"/>
<path id="Vector_7" d="M11.3854 14.0303L10.7455 10.6196C10.727 10.5165 10.6883 10.418 10.6315 10.3299C10.5748 10.2418 10.5012 10.1658 10.4149 10.1063C10.3286 10.0468 10.2314 10.005 10.1289 9.98325C10.0264 9.96153 9.92058 9.96032 9.81759 9.97971L7.03719 10.5204C6.36849 10.6484 5.85017 8.07279 6.53807 7.93841L9.82399 7.2985C10.2004 7.22428 10.5878 7.22536 10.9638 7.30166C11.3398 7.37796 11.6969 7.52797 12.0146 7.74304C12.3323 7.95812 12.6043 8.23398 12.8148 8.55472C13.0253 8.87546 13.1702 9.23472 13.2411 9.61176L13.7402 12.1362" stroke="#E3D6FF" stroke-width="1.27982" stroke-linecap="round" stroke-linejoin="round"/>
</g>
<defs>
<clipPath id="clip0_28_403">
<rect width="31.9954" height="31.9954" fill="white" transform="translate(0.859375 0.128311)"/>
</clipPath>
</defs>
</svg>
