<svg width="104" height="40" viewBox="0 0 104 40" fill="none" xmlns="http://www.w3.org/2000/svg">
<g clip-path="url(#clip0_207_6182)">
<path d="M14.776 25.9993C14.3271 26.8401 13.7474 27.5095 13.0454 27.9993C12.3352 28.4973 11.5271 28.8483 10.6455 29.0605C9.7476 29.2728 8.83332 29.3788 7.93539 29.3788H5.28237V16.114H7.93539C8.83332 16.114 9.74759 16.2037 10.6537 16.3916C11.5353 16.5712 12.3434 16.9059 13.0454 17.3957C13.7474 17.8773 14.327 18.5466 14.7678 19.4038C15.2168 20.2609 15.4372 21.3955 15.4372 22.7751C15.4526 24.0812 15.2249 25.1669 14.776 25.9995M18.9065 17.8691C18.2208 16.5549 17.3229 15.4774 16.229 14.6611C15.1352 13.8529 13.8944 13.2652 12.5393 12.9224C11.1924 12.5795 9.83739 12.3999 8.51496 12.3999H1.38048C1.20092 12.3999 1.05396 12.5467 1.05396 12.7264V32.8319C1.05396 33.0115 1.2008 33.1585 1.38048 33.1585H8.50681C9.83739 33.1585 11.2006 32.9542 12.5475 32.5626C13.9026 32.1626 15.1434 31.5422 16.229 30.7014C17.3229 29.8606 18.2208 28.7749 18.9065 27.4688C19.5922 26.1546 19.935 24.5791 19.935 22.7751C19.935 20.8405 19.5922 19.1916 18.9065 17.8691Z" fill="#171321"/>
<path d="M34.4245 18.8729H31.0123C30.8328 18.8729 30.6858 19.0198 30.6858 19.1994V26.6931C30.6858 27.1094 30.6204 27.5339 30.4979 27.9502C30.3754 28.3584 30.1959 28.7175 29.9673 29.0277C29.7387 29.3298 29.4449 29.5828 29.0776 29.7706C28.7184 29.9585 28.3021 30.0563 27.8286 30.0563C27.347 30.0563 26.9634 29.9585 26.694 29.7706C26.4083 29.5747 26.1797 29.3216 26.0164 29.0196C25.8449 28.7094 25.7388 28.3502 25.6817 27.9502C25.6247 27.5257 25.6 27.1258 25.6 26.7421V19.1913C25.6 19.0117 25.4531 18.8647 25.2734 18.8647H21.8695C21.6899 18.8647 21.543 19.0116 21.543 19.1913V27.7135C21.543 28.44 21.6411 29.1584 21.837 29.8441C22.0329 30.5461 22.3594 31.1746 22.7921 31.7215C23.2247 32.2685 23.7879 32.7174 24.4655 33.0439C25.143 33.3786 25.9593 33.55 26.8981 33.55C27.9838 33.55 28.9388 33.2643 29.7388 32.7093C30.1878 32.399 30.5633 32.0562 30.8653 31.6889V32.8317C30.8653 33.0113 31.0122 33.1582 31.1918 33.1582H34.4326C34.6121 33.1582 34.7591 33.0114 34.7591 32.8317V19.1994C34.7498 19.0199 34.6039 18.8729 34.4244 18.8729" fill="#171321"/>
<path d="M49.1749 20.3017C48.7423 19.7547 48.179 19.3058 47.5015 18.9793C46.8239 18.6446 46.0077 18.4731 45.0689 18.4731C43.9832 18.4731 43.0281 18.7588 42.2282 19.3139C41.7792 19.6241 41.4119 19.967 41.1099 20.3343V19.1915C41.1099 19.0119 40.963 18.865 40.7833 18.865H37.5426C37.363 18.865 37.2161 19.0118 37.2161 19.1915V32.8238C37.2161 33.0033 37.3629 33.1503 37.5426 33.1503H40.9547C41.1343 33.1503 41.2813 33.0034 41.2813 32.8238V25.3301C41.2813 24.9056 41.3467 24.4893 41.4689 24.073C41.5913 23.6649 41.7709 23.3057 41.9994 22.9955C42.228 22.6934 42.5219 22.4404 42.8729 22.2445C43.2239 22.0566 43.6484 21.9588 44.1382 21.9588C44.6198 21.9588 45.0035 22.0566 45.2728 22.2445C45.5585 22.4484 45.7871 22.7016 45.9504 23.0036C46.1219 23.3138 46.2361 23.673 46.2851 24.073C46.3422 24.4893 46.3668 24.8975 46.3668 25.2811V32.8319C46.3668 33.0115 46.5137 33.1584 46.6934 33.1584H50.0973C50.2769 33.1584 50.4239 33.0116 50.4239 32.8319V24.3097C50.4239 23.5832 50.3261 22.8649 50.1301 22.1792C49.9262 21.4772 49.6077 20.8486 49.175 20.3017" fill="#171321"/>
<path d="M56.1381 24.326C56.2606 23.6077 56.6034 23.0118 57.1585 22.5302C57.8115 21.9588 58.5952 21.6894 59.5421 21.6894C60.04 21.6894 60.4808 21.7711 60.8482 21.9343C61.2073 22.0976 61.5094 22.3098 61.7461 22.5793C61.9827 22.8486 62.1543 23.1588 62.2604 23.5098C62.3421 23.7792 62.3909 24.0486 62.4155 24.3343H56.1382L56.1381 24.326ZM65.9664 22.8485C65.6235 21.8935 65.1337 21.0771 64.5215 20.4323C63.9011 19.7874 63.1665 19.2895 62.3175 18.9629C61.4767 18.6364 60.5543 18.4731 59.5747 18.4731C58.5135 18.4731 57.5177 18.6611 56.6034 19.0201C55.6892 19.3874 54.881 19.9017 54.2116 20.5629C53.5422 21.2241 53.0035 22.0404 52.6198 22.971C52.2362 23.9097 52.0403 24.9546 52.0403 26.0893C52.0403 27.2484 52.2362 28.2933 52.6198 29.2075C53.0035 30.1299 53.5504 30.9136 54.2361 31.5503C54.9218 32.187 55.73 32.6768 56.6606 33.0197C57.583 33.3625 58.6033 33.5339 59.6972 33.5339C62.3502 33.5339 64.4073 32.5707 65.8113 30.6769C65.9174 30.538 65.8931 30.3422 65.7542 30.2279L63.4849 28.4076C63.4115 28.3505 63.3217 28.3258 63.2319 28.3421C63.1421 28.3576 63.0604 28.4075 63.0116 28.481C62.6606 28.9871 62.2116 29.3871 61.681 29.6728C61.1423 29.9585 60.4729 30.1054 59.6729 30.1054C59.224 30.1054 58.7832 30.0237 58.3669 29.8688C57.9424 29.7136 57.5669 29.4933 57.2404 29.2239C56.9139 28.9626 56.6526 28.6361 56.4567 28.2688C56.3099 27.9995 56.2118 27.7137 56.1547 27.3954H66.1544C66.3176 27.3954 66.4564 27.2729 66.4809 27.1097C66.4963 26.9465 66.5136 26.7832 66.5136 26.6118V26.1546C66.4889 24.922 66.3096 23.8037 65.9667 22.8486" fill="#171321"/>
<path d="M96.2677 22.179C96.0638 21.477 95.7453 20.8484 95.3126 20.3015C94.88 19.7546 94.3167 19.3057 93.6392 18.9791C92.9617 18.6444 92.1454 18.473 91.2066 18.473C90.1291 18.473 89.174 18.7096 88.374 19.1832C87.7292 19.5668 87.1741 20.0893 86.7333 20.7341C86.3578 20.1382 85.868 19.6322 85.2802 19.2322C84.5292 18.726 83.5824 18.4648 82.4559 18.4648C81.8763 18.4648 81.3375 18.5383 80.8559 18.6934C80.3743 18.8486 79.9335 19.0526 79.558 19.322C79.1907 19.5833 78.8641 19.8771 78.5866 20.2036C78.5539 20.2444 78.5212 20.2771 78.4968 20.3178V19.1913C78.4968 19.0117 78.3499 18.8648 78.1703 18.8648H74.9296C74.75 18.8648 74.603 19.0116 74.603 19.1913V32.8236C74.603 33.0031 74.7499 33.1501 74.9296 33.1501H78.3417C78.5213 33.1501 78.6683 33.0032 78.6683 32.8236V25.3299C78.6683 24.9054 78.7253 24.4809 78.8398 24.0646C78.9539 23.6565 79.1175 23.2891 79.3377 22.9871C79.5416 22.6851 79.8193 22.4402 80.154 22.2443C80.4805 22.0564 80.8724 21.9586 81.3295 21.9586C82.0969 21.9586 82.6356 22.1872 82.9866 22.6606C83.3539 23.1585 83.5335 23.8034 83.5335 24.5871V32.8236C83.5335 33.0031 83.6804 33.1501 83.8601 33.1501H87.264C87.4436 33.1501 87.5905 33.0032 87.5905 32.8236V25.3871C87.5905 24.9871 87.6476 24.5626 87.7538 24.1463C87.8599 23.7381 88.0231 23.3708 88.2436 23.0443C88.4638 22.7259 88.7415 22.4647 89.0843 22.2606C89.4109 22.0647 89.8109 21.9669 90.2761 21.9669C90.7578 21.9669 91.1414 22.0647 91.4108 22.2526C91.6965 22.4485 91.9251 22.7015 92.0883 23.0036C92.2599 23.3138 92.374 23.673 92.423 24.0729C92.4801 24.4974 92.5048 24.8974 92.5048 25.2811V32.8319C92.5048 33.0115 92.6517 33.1584 92.8313 33.1584H96.2353C96.4149 33.1584 96.5618 33.0116 96.5618 32.8319V24.3097C96.5618 23.5832 96.464 22.8648 96.2681 22.1791" fill="#171321"/>
<path d="M103.092 34.2276V16.3587C103.092 15.2078 102.602 14.1057 101.737 13.3221L89.6064 2.59592L88.2187 1.37145C87.4841 0.751066 86.5534 0.408203 85.5902 0.408203C84.578 0.408203 83.6066 0.783672 82.8556 1.46122L74.7987 8.61208C74.6845 8.71821 74.6108 8.86504 74.6108 9.02019V12.9385C74.6108 13.1587 74.7413 13.3548 74.9373 13.4364C75.1332 13.5262 75.3617 13.4935 75.525 13.3466L84.4799 5.40397L85.5656 4.44892C85.5748 4.43966 85.5902 4.43965 85.5983 4.43348L99.0428 16.3188C99.0521 16.3281 99.052 16.3342 99.052 16.3435V35.5022C99.052 35.5176 99.0366 35.5349 99.0113 35.5349H1.60187C1.29983 35.5503 1.05493 35.7962 1.05493 36.0981V39.0368C1.05493 39.3389 1.29992 39.5919 1.60187 39.5919H96.1543H98.7257H100.554C101.95 39.5919 103.085 38.4572 103.085 37.0613V35.0532L103.092 34.2276Z" fill="#171321"/>
<path d="M71.2967 11.6815L68.3009 14.3426C68.1704 14.4488 68.0967 14.612 68.0967 14.7753V32.8646C68.0967 33.0361 68.2355 33.1748 68.4069 33.1748H71.8272C71.9987 33.1748 72.1374 33.0359 72.1374 32.8646L72.1528 12.0488C72.1528 11.6652 71.7283 11.3386 71.2957 11.6815" fill="#171321"/>
</g>
<defs>
<clipPath id="clip0_207_6182">
<rect width="102.854" height="40" fill="white" transform="translate(0.645752)"/>
</clipPath>
</defs>
</svg>
